Visualizing Grand Slam Tennis Winners - Marco Pasin - my new data blog
…
library("tidyverse")
library("gganimate")

Import datasets

player_dob <- readr::read_csv("https://raw.githubusercontent.com/rfordatascience/tidytuesday/master/data/2019/2019-04-09/player_dob.csv")

grand_slams <- readr::read_csv("https://raw.githubusercontent.com/rfordatascience/tidytuesday/master/data/2019/2019-04-09/grand_slams.csv")

grand_slam_timeline <- readr::read_csv("https://raw.githubusercontent.com/rfordatascience/tidytuesday/master/data/2019/2019-04-09/grand_slam_timeline.csv")

After a quick look at the files, I’ve focused on grand_slams dataset, which contains the tennis players winners for each Grand Slam tournament since 1968.

grand_slams
## # A tibble: 416 x 6
##     year grand_slam      name      rolling_win_cou~ tournament_date gender
##    <int> <chr>           <chr>                <int> <date>          <chr> 
##  1  1968 australian_open Billie J~                1 1968-01-10      Female
##  2  1968 french_open     Nancy Ri~                1 1968-06-09      Female
##  3  1968 wimbledon       Billie J~                2 1968-07-14      Female
##  4  1968 us_open         Virginia~                1 1968-09-09      Female
##  5  1969 australian_open Margaret~                1 1969-01-10      Female
##  6  1969 french_open     Margaret~                2 1969-06-09      Female
##  7  1969 wimbledon       Ann Hayd~                1 1969-07-14      Female
##  8  1969 us_open         Margaret~                3 1969-09-09      Female
##  9  1970 australian_open Margaret~                4 1970-01-10      Female
## 10  1970 french_open     Margaret~                5 1970-06-09      Female
## # ... with 406 more rows

Lets quickly check which are the top winners. Serena Williams has won 23 tournaments so far, she is the player with more victories ever, followed by Steffi Graf with 22. While Roger Federer is top on the male rankng with 20 torunaments won at 2019.

grand_slams %>% 
  group_by(gender) %>% 
  #filter(gender=="Male") %>% 
  count(name, sort=TRUE)
## # A tibble: 105 x 3
## # Groups:   gender [2]
##    gender name                    n
##    <chr>  <chr>               <int>
##  1 Female Serena Williams        23
##  2 Female Steffi Graf            22
##  3 Male   Roger Federer          20
##  4 Female Chris Evert            19
##  5 Female Martina Navratilova    18
##  6 Male   Rafael Nadal           17
##  7 Male   Novak Djokovic         15
##  8 Male   Pete Sampras           14
##  9 Male   Björn Borg             12
## 10 Female Margaret Court         11
## # ... with 95 more rows
…
