Grand Slam Analysis - Marco Pasin - my new data blog
…
## Parsed with column specification:
## cols(
##   player = col_character(),
##   year = col_integer(),
##   tournament = col_character(),
##   outcome = col_character(),
##   gender = col_character()
## )

After a quick look at the files, I am going to focus on grand_slams dataset, which contains the tennis players winners for each Grand Slam tournament since 1968.

grand_slams

## # A tibble: 416 x 6
##     year grand_slam      name      rolling_win_cou~ tournament_date gender
##    <int> <chr>           <chr>                <int> <date>          <chr> 
##  1  1968 australian_open Billie J~                1 1968-01-10      Female
##  2  1968 french_open     Nancy Ri~                1 1968-06-09      Female
##  3  1968 wimbledon       Billie J~                2 1968-07-14      Female
##  4  1968 us_open         Virginia~                1 1968-09-09      Female
##  5  1969 australian_open Margaret~                1 1969-01-10      Female
##  6  1969 french_open     Margaret~                2 1969-06-09      Female
##  7  1969 wimbledon       Ann Hayd~                1 1969-07-14      Female
##  8  1969 us_open         Margaret~                3 1969-09-09      Female
##  9  1970 australian_open Margaret~                4 1970-01-10      Female
## 10  1970 french_open     Margaret~                5 1970-06-09      Female
## # ... with 406 more rows
…
## Warning: `new_overscope()` is soft-deprecated as of rlang 0.2.0.
## Please use `new_data_mask()` instead
## This warning is displayed once per session.

## Warning: The `parent` argument of `new_data_mask()` is deprecated.
## The parent of the data mask is determined from either:
## 
##   * The `env` argument of `eval_tidy()`
##   * Quosure environments when applicable
## This warning is displayed once per session.

## Warning: `overscope_clean()` is soft-deprecated as of rlang 0.2.0.
## This warning is displayed once per session.

## # A tibble: 55 x 2
##    name               n
##    <chr>          <int>
##  1 Roger Federer     20
##  2 Rafael Nadal      17
##  3 Novak Djokovic    15
##  4 Pete Sampras      14
##  5 Björn Borg        12
##  6 Andre Agassi       8
##  7 Ivan Lendl         8
##  8 Jimmy Connors      8
##  9 John McEnroe       7
## 10 Mats Wilander      7
## # ... with 45 more rows

Prepare data

What I want to build it’s an animation showing how the winners ranking has been changing over the years, since the first tournament until now (most recent data available is from 2019). So, I don’t need the exact date but actually just the year.

As the names indicates, rolling_win_count column is a rolling count of tournament won for each player. For example, Margaret Count won 2 tournaments in the same year in 1969, and her rollin count on the last tournament is 2. So, the first step to get the dataset tidy on a year level, is to get the maximum count for each year.

win_per_year <- grand_slams %>%
  group_by(year, name, gender) %>% 
  summarize(win_count = max(rolling_win_count))

win_per_year

## # A tibble: 308 x 4
## # Groups:   year, name [?]
##     year name             gender win_count
##    <int> <chr>            <chr>      <dbl>
##  1  1968 Arthur Ashe      Male        1.00
##  2  1968 Billie Jean King Female      2.00
##  3  1968 Ken Rosewall     Male        1.00
##  4  1968 Nancy Richey     Female      1.00
##  5  1968 Rod Laver        Male        1.00
##  6  1968 Virginia Wade    Female      1.00
##  7  1968 William Bowrey   Male        1.00
##  8  1969 Ann Haydon-Jones Female      1.00
##  9  1969 Margaret Court   Female      3.00
## 10  1969 Rod Laver        Male        5.00
## # ... with 298 more rows
…
